Trump and Biden Tweet Analysis
…
---

```r
biden_polarity
```

```
## # A tibble: 4,010 x 4
##    index negative positive polarity
##    <dbl>    <dbl>    <dbl>    <dbl>
##  1     3        0        1        1
##  2     5        0        1        1
##  3     6        0        1        1
##  4     8        0        2        2
##  5     9        0        3        3
##  6    10        0        1        1
##  7    11        3        0       -3
##  8    12        0        5        5
##  9    13        1        3        2
## 10    16        1        1        0
## # ... with 4,000 more rows
```
…
# Tidy the matrix of word probabilities
lda_topics_biden5 <- lda_out_biden5 %>%
tidy(matrix = "beta")

# Arrange the topics by word probabilities in descending order___ %>% 
lda_topics_biden5 %>%
    arrange(desc(beta))
```

```
## # A tibble: 59,655 x 3
##    topic term        beta
##    <int> <chr>      <dbl>
##  1     2 trump     0.0604
##  2     2 president 0.0598
##  3     2 donald    0.0430
##  4     5 will      0.0327
##  5     5 â€”       0.0326
##  6     1 nation    0.0267
##  7     5 one       0.0245
##  8     2 american  0.0244
##  9     3 today     0.0227
## 10     3 make      0.0226
## # ... with 59,645 more rows
```
…
